D3 Herpes Simplex Decision Tree Example Doubilet 1985 • gmod
…
#>  [6] "BiopAvail"  "BiopRes"    "die"        "sevSeqHSE"  "modSeqHSE" 
#> 
#> $payoffs
#> $payoffs$util
#> util(decision, final_outcome, sevBiopSeq, modBiopSeq)
#> 
#> 
#> $payoff_names
#> [1] "util"
#> 
#> $n_payoffs
#> [1] 1
#> 
#> $final_outcome_formulae
#> # A tibble: 291 × 15
#> # Groups:   decision, final_outcome [12]
#>    decision    final_outcome path_id probs  Biopsy dieBiop sevBiopSeq modBiopSeq
#>    <chr>       <chr>           <dbl> <chr>  <chr>  <chr>   <chr>      <chr>     
#>  1 BrainBiopsy DEAD                1 (pBio… TRUE   TRUE    FALSE      FALSE     
#>  2 BrainBiopsy DEAD                2 (1-(p… FALSE  FALSE   FALSE      FALSE     
#>  3 BrainBiopsy DEAD                3 (pBio… TRUE   FALSE   TRUE       FALSE     
#>  4 BrainBiopsy DEAD                4 (pBio… TRUE   FALSE   FALSE      TRUE      
#>  5 BrainBiopsy DEAD                5 (pBio… TRUE   FALSE   FALSE      FALSE     
#>  6 BrainBiopsy DEAD                6 (1-(p… FALSE  FALSE   FALSE      FALSE     
#>  7 BrainBiopsy DEAD                7 (pBio… TRUE   FALSE   TRUE       FALSE     
#>  8 BrainBiopsy DEAD                8 (pBio… TRUE   FALSE   FALSE      TRUE      
#>  9 BrainBiopsy DEAD                9 (pBio… TRUE   FALSE   FALSE      FALSE     
#> 10 BrainBiopsy DEAD               10 (1-(p… FALSE  FALSE   FALSE      FALSE     
#> # ℹ 281 more rows
#> # ℹ 7 more variables: HSE <chr>, BiopAvail <chr>, BiopRes <chr>, die <chr>,
#> #   sevSeqHSE <chr>, modSeqHSE <chr>, util <chr>
…
#>  [6] "BiopAvail"  "BiopRes"    "die"        "sevSeqHSE"  "modSeqHSE" 
#> 
#> $payoffs
#> $payoffs$util
#> util(decision, final_outcome, sevBiopSeq, modBiopSeq)
#> 
#> 
#> $payoff_names
#> [1] "util"
#> 
#> $n_payoffs
#> [1] 1
#> 
#> $final_outcome_formulae
#> # A tibble: 291 × 15
#> # Groups:   decision, final_outcome [12]
#>    decision    final_outcome path_id probs  Biopsy dieBiop sevBiopSeq modBiopSeq
#>    <chr>       <chr>           <dbl> <chr>  <chr>  <chr>   <chr>      <chr>     
#>  1 BrainBiopsy DEAD                1 (pBio… TRUE   TRUE    FALSE      FALSE     
#>  2 BrainBiopsy DEAD                2 (1-(p… FALSE  FALSE   FALSE      FALSE     
#>  3 BrainBiopsy DEAD                3 (pBio… TRUE   FALSE   TRUE       FALSE     
#>  4 BrainBiopsy DEAD                4 (pBio… TRUE   FALSE   FALSE      TRUE      
#>  5 BrainBiopsy DEAD                5 (pBio… TRUE   FALSE   FALSE      FALSE     
#>  6 BrainBiopsy DEAD                6 (1-(p… FALSE  FALSE   FALSE      FALSE     
#>  7 BrainBiopsy DEAD                7 (pBio… TRUE   FALSE   TRUE       FALSE     
#>  8 BrainBiopsy DEAD                8 (pBio… TRUE   FALSE   FALSE      TRUE      
#>  9 BrainBiopsy DEAD                9 (pBio… TRUE   FALSE   FALSE      FALSE     
#> 10 BrainBiopsy DEAD               10 (1-(p… FALSE  FALSE   FALSE      FALSE     
#> # ℹ 281 more rows
#> # ℹ 7 more variables: HSE <chr>, BiopAvail <chr>, BiopRes <chr>, die <chr>,
#> #   sevSeqHSE <chr>, modSeqHSE <chr>, util <chr>
…
#>  [6] "BiopAvail"  "BiopRes"    "die"        "sevSeqHSE"  "modSeqHSE" 
#> 
#> $payoffs
#> $payoffs$util
#> util(decision, final_outcome, sevBiopSeq, modBiopSeq)
#> 
#> 
#> $payoff_names
#> [1] "util"
#> 
#> $n_payoffs
#> [1] 1
#> 
#> $final_outcome_formulae
#> # A tibble: 291 × 15
#> # Groups:   decision, final_outcome [12]
#>    decision    final_outcome path_id probs  Biopsy dieBiop sevBiopSeq modBiopSeq
#>    <chr>       <chr>           <dbl> <chr>  <chr>  <chr>   <chr>      <chr>     
#>  1 BrainBiopsy DEAD                1 (pBio… TRUE   TRUE    FALSE      FALSE     
#>  2 BrainBiopsy DEAD                2 (1-(p… FALSE  FALSE   FALSE      FALSE     
#>  3 BrainBiopsy DEAD                3 (pBio… TRUE   FALSE   TRUE       FALSE     
#>  4 BrainBiopsy DEAD                4 (pBio… TRUE   FALSE   FALSE      TRUE      
#>  5 BrainBiopsy DEAD                5 (pBio… TRUE   FALSE   FALSE      FALSE     
#>  6 BrainBiopsy DEAD                6 (1-(p… FALSE  FALSE   FALSE      FALSE     
#>  7 BrainBiopsy DEAD                7 (pBio… TRUE   FALSE   TRUE       FALSE     
#>  8 BrainBiopsy DEAD                8 (pBio… TRUE   FALSE   FALSE      TRUE      
#>  9 BrainBiopsy DEAD                9 (pBio… TRUE   FALSE   FALSE      FALSE     
#> 10 BrainBiopsy DEAD               10 (1-(p… FALSE  FALSE   FALSE      FALSE     
#> # ℹ 281 more rows
#> # ℹ 7 more variables: HSE <chr>, BiopAvail <chr>, BiopRes <chr>, die <chr>,
#> #   sevSeqHSE <chr>, modSeqHSE <chr>, util <chr>
…
#>  [6] "BiopAvail"  "BiopRes"    "die"        "sevSeqHSE"  "modSeqHSE" 
#> 
#> $payoffs
#> $payoffs$util
#> util(decision, final_outcome, sevBiopSeq, modBiopSeq)
#> 
#> 
#> $payoff_names
#> [1] "util"
#> 
#> $n_payoffs
#> [1] 1
#> 
#> $final_outcome_formulae
#> # A tibble: 291 × 15
#> # Groups:   decision, final_outcome [12]
#>    decision    final_outcome path_id probs  Biopsy dieBiop sevBiopSeq modBiopSeq
#>    <chr>       <chr>           <dbl> <chr>  <chr>  <chr>   <chr>      <chr>     
#>  1 BrainBiopsy DEAD                1 (pBio… TRUE   TRUE    FALSE      FALSE     
#>  2 BrainBiopsy DEAD                2 (1-(p… FALSE  FALSE   FALSE      FALSE     
#>  3 BrainBiopsy DEAD                3 (pBio… TRUE   FALSE   TRUE       FALSE     
#>  4 BrainBiopsy DEAD                4 (pBio… TRUE   FALSE   FALSE      TRUE      
#>  5 BrainBiopsy DEAD                5 (pBio… TRUE   FALSE   FALSE      FALSE     
#>  6 BrainBiopsy DEAD                6 (1-(p… FALSE  FALSE   FALSE      FALSE     
#>  7 BrainBiopsy DEAD                7 (pBio… TRUE   FALSE   TRUE       FALSE     
#>  8 BrainBiopsy DEAD                8 (pBio… TRUE   FALSE   FALSE      TRUE      
#>  9 BrainBiopsy DEAD                9 (pBio… TRUE   FALSE   FALSE      FALSE     
#> 10 BrainBiopsy DEAD               10 (1-(p… FALSE  FALSE   FALSE      FALSE     
#> # ℹ 281 more rows
#> # ℹ 7 more variables: HSE <chr>, BiopAvail <chr>, BiopRes <chr>, die <chr>,
#> #   sevSeqHSE <chr>, modSeqHSE <chr>, util <chr>
…
